Introduction to epidict
…
You can also read in your own ODK dictionaries using
read_dict().

Generating data

The {epidict} package has a function for generating data that’s
called gen_data(), which takes three arguments: The
dictionary, which column describes the variable names, and how many rows
are needed in the output.

Click here for code examples

library("epidict")
gen_data("Measles", varnames = "data_element_shortname", numcases = 100, org = "MSF")
#> # A tibble: 100 × 52
#>    case_number date_of_consultation_admis…¹ patient_facility_type patient_origin
#>    <chr>       <date>                       <fct>                 <chr>         
#>  1 A1          2018-03-12                   OP                    Village D     
#>  2 A2          2018-04-08                   OP                    Village C     
#>  3 A3          2018-04-18                   IP                    Village C     
#>  4 A4          2018-01-18                   OP                    Village C     
#>  5 A5          2018-03-21                   OP                    Village C     
#>  6 A6          2018-02-28                   OP                    Village D     
#>  7 A7          2018-03-08                   IP                    Village A     
#>  8 A8          2018-01-07                   IP                    Village C     
#>  9 A9          2018-04-16                   IP                    Village C     
#> 10 A10         2018-01-26                   IP                    Village B     
#> # ℹ 90 more rows
#> # ℹ abbreviated name: ¹​date_of_consultation_admission
#> # ℹ 48 more variables: age_years <int>, age_months <int>, age_days <int>,
#> #   sex <fct>, pregnant <fct>, trimester <fct>,
#> #   foetus_alive_at_admission <fct>, exit_status <fct>, date_of_exit <date>,
#> #   time_to_death <fct>, pregnancy_outcome_at_exit <fct>,
#> #   baby_born_with_complications <fct>, previously_vaccinated <fct>, …
gen_data("Vaccination_long", varnames = "name", numcases = 100, org = "MSF")
#> # A tibble: 100 × 120
#>    start end   today deviceid date       team_number village_name village_other
#>    <lgl> <lgl> <lgl> <lgl>    <date>     <lgl>       <fct>        <lgl>        
#>  1 NA    NA    NA    NA       2018-02-19 NA          village_5    NA           
#>  2 NA    NA    NA    NA       2018-03-11 NA          village_5    NA           
#>  3 NA    NA    NA    NA       2018-01-20 NA          village_6    NA           
#>  4 NA    NA    NA    NA       2018-03-28 NA          village_1    NA           
#>  5 NA    NA    NA    NA       2018-04-08 NA          other        NA           
#>  6 NA    NA    NA    NA       2018-04-30 NA          village_3    NA           
#>  7 NA    NA    NA    NA       2018-04-21 NA          village_1    NA           
#>  8 NA    NA    NA    NA       2018-01-25 NA          village_6    NA           
#>  9 NA    NA    NA    NA       2018-01-09 NA          village_3    NA           
#> 10 NA    NA    NA    NA       2018-03-04 NA          village_8    NA           
#> # ℹ 90 more rows
#> # ℹ 112 more variables: cluster_number <dbl>, household_number <int>,
#> #   households_building <int>, random_hh <int>, consent <chr>,
#> #   no_consent_reason <fct>, no_consent_other <lgl>, caretaker_relation <fct>,
#> #   caretaker_other <lgl>, number_children <dbl>, child_number <chr>,
#> #   sex <fct>, date_birth <date>, age_years <int>, age_months <int>,
#> #   any_vaccine <fct>, vaccine_card <fct>, hf_records <fct>, …
…
# We want the expanded dictionary, so we will select `compact = FALSE`
dict <- msf_dict(dictionary = "Cholera", 
  long    = TRUE,
  compact = FALSE,
  tibble  = TRUE
)
print(dict)
#> # A tibble: 182 × 11
#>    data_element_uid data_element_name                     data_element_shortname
#>    <chr>            <chr>                                 <chr>                 
#>  1 AafTlSwliVQ      egen_001_patient_case_number          case_number           
#>  2 OTGOtWBz39J      egen_004_date_of_consultation_admiss… date_of_consultation_…
#>  3 wnmMr2V3T3u      egen_006_patient_origin               patient_origin        
#>  4 sbgqjeVwtb8      egen_008_age_years                    age_years             
#>  5 eXYhovYyl61      egen_009_age_months                   age_months            
#>  6 UrYJSk2Wp46      egen_010_age_days                     age_days              
#>  7 D1Ky5K7pFN6      egen_011_sex                          sex                   
#>  8 D1Ky5K7pFN6      egen_011_sex                          sex                   
#>  9 D1Ky5K7pFN6      egen_011_sex                          sex                   
#> 10 dTm5R53YYXC      egen_012_pregnancy_status             pregnant              
#> # ℹ 172 more rows
#> # ℹ 8 more variables: data_element_description <chr>,
#> #   data_element_valuetype <chr>, data_element_formname <chr>,
#> #   used_optionset_uid <chr>, option_code <chr>, option_name <chr>,
#> #   option_uid <chr>, option_order_in_set <dbl>
…
